165177 920820 525
244398 830329 509
845572 257461 525
756701 746760 424
253975 993668 525
881107 501502 525
766108 86534 509
361662 347107 410
52124 492429 449
104123 743098 509
721119 60584 509
470695 87307 449
190524 227828 386
862988 909022 445
410453 87611 449
817497 16526 509
887886 848325 445
173204 181758 365
135349 355201 443
773676 245699 509
106 678 145
222 869 171
774 315 171
685 568 145
316 911 179
256 184 128
884 995 174
760 144 171
832 184 171
142 775 171
63 242 128
165 184 125
448 967 179
365 341 126
806 947 179
460 947 179
725 558 171
474 393 134
552 294 144
652 920 179
428 186 144
890 14 179
663 398 145
671 875 179
628 324 144
842 333 171
666 953 179
866 874 179
281 830 171
963 186 179
931 463 179
680 492 145
257 241 123
172 432 144
241 153 128
454 782 171
19 164 122
718 570 171
230 634 144
369 611 142
206751 93427 383
153029 236419 443
406718 59327 443
140955 57928 354
132734 136656 344
239461 223978 443
428398 85403 449
178606 173387 347
350136 174647 443
252726 90836 443
172238 227126 386
354198 116856 443
361895 60305 443
267543 211073 443
394052 58296 443
191455 185090 360
429208 67769 449
200707 151581 383
442733 234460 449
443007 131752 449
185071 180514 334
418926 187530 449
253100 155266 443
349953 153362 443
307445 118423 443
86353 93802 333
239853 229241 443
402290 109692 443
339472 93442 443
211766 59119 383
55858 221522 386
95977 155638 375
373343 248391 441
249074 175058 443
112013 209732 383
430306 176202 449
100977 121782 354
288115 232483 407
304605 248416 407
251130 114487 443
